4.203675645446777480e+02
3.106954401016235323e+01
1.916974828720092816e+01
1.693903071403503446e+01
1.578215659141540606e+01
1.471965084075927699e+01
1.376128546714782708e+01
1.290627537727355900e+01
1.223301608085632353e+01
1.156798783302307143e+01
1.112921706199646010e+01
1.072200544357299812e+01
1.025283082962036119e+01
1.004275287628173885e+01
9.751007566452026154e+00
9.570596170425414329e+00
9.253858804702758789e+00
9.176852092742919353e+00
8.933210177421569753e+00
8.885637645721436328e+00
8.741062335968017294e+00
8.631244220733641725e+00
8.595692844390869780e+00
8.442172064781189533e+00
8.414061579704284810e+00
8.375630927085875754e+00
8.125248951911926198e+00
7.992852325439453232e+00
7.953487801551818670e+00
7.919461092948913539e+00
7.795550570487976394e+00
7.641509985923766735e+00
7.595565309524536346e+00
7.569030475616455256e+00
7.509916596412658407e+00
7.526912302970885982e+00
7.503793978691101429e+00
7.464853496551513423e+00
7.417005019187927317e+00
7.398726291656494425e+00
7.374992914199829386e+00
7.290164461135864471e+00
7.272731657028198349e+00
7.194095501899719025e+00
7.149465756416320872e+00
7.124861869812011861e+00
7.100762844085693359e+00
7.147788290977477921e+00
7.098769860267639231e+00
7.043876180648803498e+00
