4.520913505172729288e+02
3.224899791717529496e+01
1.902890254974365192e+01
1.701834567070007154e+01
1.615699292182922520e+01
1.500481678962707477e+01
1.414522398948669490e+01
1.323223244667053144e+01
1.263538839340209918e+01
1.195115280151367188e+01
1.139107865333557079e+01
1.097009338378906307e+01
1.101180205345153773e+01
1.032168436050415039e+01
1.017081802368164034e+01
9.872126131057738618e+00
9.600150537490844016e+00
9.415049896240233807e+00
9.332450323104858114e+00
9.088874092102050994e+00
8.981744523048400097e+00
8.998572745323180300e+00
8.700115060806274059e+00
8.649212884902954812e+00
8.595270085334778543e+00
8.610861716270447275e+00
8.452864704132080576e+00
8.484704570770263743e+00
8.496064496040343528e+00
8.364196081161498597e+00
8.312234630584717010e+00
8.083890571594238850e+00
7.834035811424254980e+00
7.913988108634948837e+00
7.828279237747192809e+00
7.758960852622985627e+00
7.726819367408752193e+00
7.769720854759216699e+00
7.670552039146423695e+00
7.718381609916686870e+00
7.650492901802063095e+00
7.452279033660889063e+00
7.455321722030639364e+00
7.433256106376648020e+00
7.412837777137756490e+00
7.312783441543579066e+00
7.335483126640319540e+00
7.300594558715820526e+00
7.348131299018859863e+00
7.186944837570190536e+00
