2.666213314056396371e+02
2.742521045684814496e+01
1.875292444229125977e+01
1.669102307319641199e+01
1.552092863082885721e+01
1.459179033279419002e+01
1.381102717399597246e+01
1.296595055580139189e+01
1.233436842918396081e+01
1.169760287284851152e+01
1.130614028930664006e+01
1.122232267379760806e+01
1.082620347023010332e+01
1.052105663299560590e+01
1.021058515548705969e+01
9.864893846511840536e+00
9.643287839889525870e+00
9.439388179779053090e+00
9.199984083175658967e+00
9.130142431259155700e+00
9.041881198883055859e+00
8.833294286727905842e+00
8.719598360061645792e+00
8.614421873092650728e+00
8.629841213226319141e+00
8.414515819549560405e+00
8.326279716491699290e+00
8.311160702705382874e+00
8.339813432693482298e+00
7.908784093856811914e+00
7.947504310607910405e+00
7.897590312957763814e+00
7.830163774490356055e+00
7.714909143447876261e+00
7.562963356971740936e+00
7.548622946739197204e+00
7.590347733497619487e+00
7.518901467323303223e+00
7.431807217597961035e+00
7.480756096839904501e+00
7.405366282463074157e+00
7.377032403945922745e+00
7.448453326225280335e+00
7.376706714630127060e+00
7.221319580078125355e+00
7.213067035675049254e+00
7.248836841583251811e+00
7.158166708946228418e+00
7.195965247154235911e+00
7.108442883491516540e+00
