4.246065120697021200e+01
2.730491710662841953e+01
2.907032527160644690e+02
2.931644102096557702e+01
1.699941623687744041e+01
1.482188600540161083e+01
1.402801593780517564e+01
1.303510105133056562e+01
1.510438007354736278e+01
1.173669925689697280e+01
1.108690263748168903e+01
1.283987056732177656e+01
1.094995140075683615e+01
1.152871026992797887e+01
1.048663831710815408e+01
9.837246742248535014e+00
1.055281595230102454e+01
1.006496622085571246e+01
9.375824851989746023e+00
1.001155801773071374e+01
9.463684825897216157e+00
9.171236209869384481e+00
9.042277908325194957e+00
9.013838768005371094e+00
9.045826883316040679e+00
8.942489709854125834e+00
1.014761903762817319e+01
9.770651550292969389e+00
9.118257312774657564e+00
8.488575248718261079e+00
8.506420888900755983e+00
8.492599992752074556e+00
8.541514625549316619e+00
8.308176755905151367e+00
8.320021934509277628e+00
8.254265823364256960e+00
8.180877599716186666e+00
8.226200113296508576e+00
8.071812629699707031e+00
8.123481616973876385e+00
8.039258337020873668e+00
8.058064670562744780e+00
8.100946521759032848e+00
8.189243974685668448e+00
8.030619802474975089e+00
8.002826194763184020e+00
8.012714500427245312e+00
8.109970932006836719e+00
7.876088361740112731e+00
8.123028087615967507e+00
